{
    "antifeatures": {
        "Ads": "Mae'r ap hwn yn cynnwys hysbysebion",
        "DisabledAlgorithm": "Mae gan yr ap hwn llofnod diogelwch gwan",
        "KnownVuln": "Mae gan yr ap hwn wendid diogelwch",
        "NoSourceSince": "Dyw'r cod ffynhonnell ddim ar gael bellach a dim diweddariadau yn bosib",
        "NonFreeAdd": "Mae'r ap hwn yn hyrwyddo ategion na sydd am ddim",
        "NonFreeAssets": "Mae'r ap hwn yn cynnwys asedau na sydd am ddim",
        "NonFreeDep": "Mae'r ap hwn yn dibynnu ar apiau eraill na sydd am ddim",
        "NonFreeNet": "Mae'r ap hwn yn hyrwyddo gwasanaethau rhwydwaith na sydd am ddim",
        "Tracking": "Mae'r ap hwn yn tracio ac adrodd ar dy weithgaredd"
    },
    "app_categories": {
        "Connectivity": "Cysylltedd",
        "Development": "Datblygiad",
        "Games": "Gemau",
        "Graphics": "Graffigau",
        "Internet": "Rhyngrwyd",
        "Money": "Arian",
        "Multimedia": "Aml-gyfrwng",
        "Navigation": "Llywio",
        "Phone & SMS": "Ffôn ac SMS",
        "Reading": "Darllen",
        "Science & Education": "Gwyddoniaeth ac Addysg",
        "Security": "Diogelwch",
        "Sports & Health": "Chwaraeon a Iechyd",
        "System": "System",
        "Theming": "Themáu",
        "Time": "Amser",
        "Writing": "Ysgrifennu",
        "show_all_packages": "Gweld y %d"
    },
    "index": {
        "download_fdroid": "Lawrlwytho F-Droid",
        "gpg_signature": "Llofnod PGP",
        "introduction": "Mae F-Droid yn gatalog o apiau FOSS (Free &amp; Open Source Software) ar gyfer Android. Mae'r cleient yn ei wneud yn hawdd pori, gosod a diweddaru ar dy ddyfais.",
        "screenshot": "Sgrinlun ap Android F-Droid",
        "title": "Beth yw F-Droid?"
    },
    "navigation": {
        "about": "Ynghylch",
        "apps": "Apiau",
        "contribute": "Cyfrannu",
        "documentation": "Dogfennau",
        "edit_on_gitlab": "Golygu ar GitLab",
        "forum": "Fforwm",
        "issues": "Materion",
        "news": "Newyddion",
        "translate_on_weblate": "Cyfieithu ar Weblate"
    },
    "package": {
        "added_on": "Ychwanegwyd ar {{ package_added_date }}",
        "anti_features": "Gwrth-Nodweddion",
        "anti_features_warning": "Mae gan yr ap hwn nodweddion annymunol posib.",
        "author": "Awdur",
        "build_log": "Log Adeiledd",
        "build_metadata": "Metaddata Adeiledd",
        "changelog": "Log newidiadau",
        "donate": "Rhoddi",
        "download": "Lawrlwytho {{ file_extension }}",
        "gpg_signature": "Llofnod PGP",
        "liberapay": "Liberapay",
        "license": "Trwydded",
        "minimum_android_version": "Rhaid cael Android {{ android_version }} neu'n ddiweddarach i'r fersiwn hwn.",
        "new_in_version": "Newydd yn fersiwn {{ latest_version }}",
        "package_icon_alt": "eicon pecyn",
        "package_screenshot_alt": "sgrinlun ap",
        "packages": "Pecynnau",
        "permissions": "Caniatâd",
        "signed_by_developer": "Adeiladwyd a llofnodwyd gan y datblygwr gwreiddiol.",
        "source_code": "Cod Ffynhonnell",
        "suggest_downloading_via_fdroid": "Er bod ffeiliau APK isod i'w lawrlwytho i chi cael dewis, dylech fod yn ymwybodol wrth osod fel hynny ni fyddwch yn derbyn hysbysiadau diweddaru ac mae'n ddull llai diogel o lawrlwytho. Argymhellwn eich bod yn gosod a defnyddio ap F-Droid.",
        "suggested": "awgrymir",
        "technical_info": "Gwybodaeth technegol",
        "translation": "Cyfieithiad",
        "version_info": "<b>Fersiwn {{ package_version }}</b> ({{ package_version_code }})",
        "website": "Gwefan"
    },
    "permissions": {
        "permdesc_acceptHandovers": "Mae'n caniatáu i'r ap barhau â galwad cafodd ei dechrau mewn ap arall.",
        "permdesc_addVoicemail": "Mae'n caniatáu i'r ap ychwanegu negeseuon i fewnflwch dy lleisbost.",
        "permdesc_answerPhoneCalls": "Mae'n caniatáu i'r ap ateb galwadau i mewn.",
        "permdesc_audioWrite": "Mae'n caniatáu i'r ap addasu dy gasgliad o gerddoriaeth.",
        "permdesc_camera": "Gall yr ap hwn dynnu lluniau a recordio fideos gyda'r camera unrhyw bryd.",
        "permdesc_enableCarMode": "Mae'n caniatáu i'r ap alluogi'r modd car.",
        "permdesc_expandStatusBar": "Mae'n caniatáu i'r ap ehangu neu guddio'r bar statws.",
        "permdesc_imagesWrite": "Mae'n caniatáu i'r ap addasu dy gasgliad o luniau.",
        "permdesc_install_shortcut": "Mae'n caniatáu i ap ychwanegu eiconau i'r Sgrin Gartref heb ymwneud gan y defnyddiwr.",
        "permdesc_readCallLog": "Gall yr ap hwn ddarllen hanes dy alwadau.",
        "permdesc_readPhoneNumbers": "Mae'n caniatáu i'r ap cael at y rhifau ffôn ar y ddyfais.",
        "permdesc_requestDeletePackages": "Mae'n caniatáu i'r ap ymofyn i ddileu pecynnau.",
        "permdesc_runInBackground": "Gall yr ap hwn rhedeg yn y cefndir. Gall hyn ddefnyddio dy fatri.",
        "permdesc_sdcardRead": "Mae'n caniatáu i'r ap ddarllen cynnwys dy storfa a rhennir.",
        "permdesc_sdcardWrite": "Mae'n caniatáu i'r ap ysgrifennu cynnwys yn dy storfa a rhennir.",
        "permdesc_setWallpaper": "Mae'n caniatáu i'r ap osod papur wal y system.",
        "permdesc_setWallpaperHints": "Mae'n caniatáu i'r ap osod awgrymiadau papur wal y system.",
        "permdesc_sim_communication": "Mae'n caniatáu i'r ap anfon gorchmynion i'r SIM. Mae hyn yn hynod beryglus.",
        "permgroupdesc_microphone": "recordio sain",
        "permgrouplab_calendar": "Calendr",
        "permgrouplab_calllog": "Logiau galwadau",
        "permgrouplab_camera": "Camera",
        "permgrouplab_contacts": "Cysylltiadau",
        "permgrouplab_location": "Lleoliad",
        "permgrouplab_microphone": "Meicroffon",
        "permgrouplab_phone": "Ffôn",
        "permgrouplab_sms": "SMS",
        "permgrouplab_storage": "Storfa",
        "permgrouprequest_calendar": "Caniatáu <b></b>",
        "permgrouprequest_calllog": "Caniatáu <b></b>",
        "permgrouprequest_camera": "Caniatáu <b></b>",
        "permgrouprequest_contacts": "Caniatáu <b></b>",
        "permgrouprequest_location": "Caniatáu <b></b>",
        "permgrouprequest_microphone": "Caniatáu <b></b>",
        "permgrouprequest_phone": "Caniatáu <b></b>",
        "permgrouprequest_sensors": "Caniatáu <b></b>",
        "permgrouprequest_sms": "Caniatáu <b></b>",
        "permgrouprequest_storage": "Caniatáu <b></b>",
        "permlab_accessNotifications": "hysbysiadau mynediad",
        "permlab_addVoicemail": "ychwanegu lleisbost",
        "permlab_recordAudio": "recordio sain",
        "permlab_setWallpaper": "gosod papur wal",
        "permlab_vibrate": "rheoli dirgrynu"
    },
    "sidebars": {
        "donate": {
            "bank_transfer_name": "Enw",
            "heading": "Rhoddi",
            "via_bank_transfer": "Trosglwyddiad Banc"
        },
        "lang": {
            "change": "Newid"
        },
        "last_updated": {
            "heading": "Diweddarwyd Diwethaf"
        },
        "latest_packages": {
            "heading": "Apiau Diweddaraf"
        },
        "news": {
            "heading": "Newyddion"
        },
        "search": {
            "heading": "Canfod Apiau",
            "search": "Chwilio"
        }
    }
}
